  Sr
  PADE 
  relativistic
  65.0     10.0 90.0        rmax,aa,bb 
       4.0d0   7.0d0		rcov,rprb
    8   13			number of core and valence orbitals
    5    0     2.00      0.00		   
    6    0     0.00      0.00		   
    7    0     0.00      0.00		   
    8    0     0.00      0.00		   
    5    1     0.00      0.00		   
    6    1     0.00      0.00		   
    7    1     0.00      0.00		   
    8    1     0.00      0.00		   
    4    2     0.00      0.00		   
    5    2     0.00      0.00		   
    6    2     0.00      0.00		   
    4    3     0.00      0.00		   
    5    3     0.00      0.00		   

